<svg width="16" height="16" viewBox="0 0 16 16" fill="none" xmlns="http://www.w3.org/2000/svg">
<g clip-path="url(#clip0_3001_14471)">
<path d="M7.9974 0.666687C6.547 0.666687 5.12918 1.09678 3.92322 1.90258C2.71726 2.70837 1.77733 3.85368 1.22228 5.19367C0.66724 6.53367 0.522015 8.00815 0.804974 9.43068C1.08793 10.8532 1.78636 12.1599 2.81195 13.1855C3.83753 14.2111 5.14421 14.9095 6.56674 15.1924C7.98926 15.4754 9.46375 15.3302 10.8037 14.7751C12.1437 14.2201 13.289 13.2802 14.0948 12.0742C14.9006 10.8682 15.3307 9.45042 15.3307 8.00002C15.3307 6.0551 14.5581 4.18984 13.1828 2.81457C11.8076 1.4393 9.94232 0.666687 7.9974 0.666687ZM10.4687 10.4714C10.3437 10.5963 10.1742 10.6665 9.9974 10.6665C9.82062 10.6665 9.65108 10.5963 9.52607 10.4714L7.52607 8.47135C7.40103 8.34636 7.33077 8.17682 7.33073 8.00002V4.00002C7.33073 3.82321 7.40097 3.65364 7.52599 3.52862C7.65102 3.40359 7.82059 3.33335 7.9974 3.33335C8.17421 3.33335 8.34378 3.40359 8.4688 3.52862C8.59383 3.65364 8.66407 3.82321 8.66407 4.00002V7.72402L10.4687 9.52869C10.5937 9.6537 10.6639 9.82324 10.6639 10C10.6639 10.1768 10.5937 10.3463 10.4687 10.4714Z" fill="#1F1F1F"/>
</g>
<defs>
<clipPath id="clip0_3001_14471">
<rect width="16" height="16" fill="white"/>
</clipPath>
</defs>
</svg>
