<svg width="18" height="19" viewBox="0 0 18 19" fill="none" xmlns="http://www.w3.org/2000/svg">
<path d="M7.6104 12.4956C7.4292 12.339 7.2834 12.15 7.2 11.8998V10.6998C7.4298 10.5864 8.0178 9.9054 8.2404 9.2628C8.052 8.964 7.9044 8.5878 7.842 8.0988C7.7904 7.6926 7.8516 7.3392 7.9758 7.0458C7.8828 6.7224 7.8 6.3174 7.8 5.8998C7.8 5.0682 7.9722 4.3068 8.2794 3.6456C8.0022 3.3672 7.6458 3.1998 7.2 3.1998C7.2 3.1998 6.9756 2.2998 5.7 2.2998C3.6072 2.2998 2.4 3.9324 2.4 5.8998C2.4 6.5622 2.7168 7.2282 2.7168 7.2282C2.5896 7.3014 2.3796 7.5342 2.4324 7.947C2.5308 8.7168 2.8644 8.9118 3.0768 8.928C3.1578 9.6468 3.93 10.566 4.2 10.6998V11.8998C3.6 13.6998 0 12.4998 0 16.6998H5.4C5.4 14.1942 6.5184 13.0938 7.6104 12.4956Z" fill="#1F1F1F"/>
<path d="M13.7996 11.9002V10.7002C14.0696 10.5664 14.8418 9.64718 14.9228 8.92898C15.1352 8.91278 15.4688 8.71778 15.5672 7.94798C15.62 7.53458 15.41 7.30238 15.2828 7.22918C15.2828 7.22918 15.5996 6.62738 15.5996 5.90078C15.5996 4.44398 15.0278 3.20078 13.7996 3.20078C13.7996 3.20078 13.5752 2.30078 12.2996 2.30078C10.2068 2.30018 8.99961 3.93278 8.99961 5.90018C8.99961 6.56258 9.31641 7.22858 9.31641 7.22858C9.18921 7.30178 8.97921 7.53458 9.03201 7.94738C9.13041 8.71718 9.46401 8.91218 9.67641 8.92838C9.75741 9.64718 10.5296 10.5664 10.7996 10.7002V11.9002C10.1996 13.7002 6.59961 12.5002 6.59961 16.7002H17.9996C17.9996 12.5002 14.3996 13.7002 13.7996 11.9002Z" fill="#1F1F1F"/>
</svg>
