<svg width="199" height="310" viewBox="0 0 199 310" fill="none" xmlns="http://www.w3.org/2000/svg">
<path d="M197.722 202.997C198.396 202.95 199.157 202.856 199.949 202.746L199.949 238.486C199.839 240.188 199.832 241.788 199.949 243.058L199.949 243.152C196.404 235.804 199.188 219.2 199.188 219.2C197.306 225.036 196.373 233.506 197.212 239.702C193.189 232.212 196.451 216.51 196.789 211.46C195.047 216.056 193.448 227.396 193.353 234.07C192.397 231.443 193.448 219.404 192.342 217.24C192.695 221.734 191.471 231.914 191.056 229.2C190.64 226.486 191.001 214.997 188.609 208.04C186.217 201.076 193.761 203.256 197.714 202.982L197.722 202.997Z" fill="#EBEBEB"/>
<path d="M154.885 204.997C155.245 205.915 157.653 208.934 160.171 212.871C161.182 214.44 162.006 215.365 162.523 215.711C162.829 216.769 163.167 217.812 163.52 218.84C160.108 214.738 156.869 212.401 156.367 212.362C155.692 209.789 155.167 207.272 154.885 205.005L154.885 204.997Z" fill="#EBEBEB"/>
<path d="M165.692 224.479C166.664 226.738 167.723 228.91 168.853 230.996C164.743 227.012 161.355 224.463 161.135 224.691C160.798 225.036 164.931 229.098 169.825 234.157C170.735 235.176 171.511 235.961 172.139 236.525C172.554 237.168 172.978 237.804 173.409 238.423C170.319 235.867 166.923 234.22 164.343 233.459C160.806 232.227 158.775 231.2 158.657 231.38C158.531 231.553 160.469 232.965 163.927 234.47C167.48 235.882 171.762 238.274 175.527 242.682C175.566 242.721 175.597 242.76 175.644 242.8C172.327 241.035 169.245 239.709 166.845 238.58C163.127 236.91 160.884 235.78 160.767 235.976C160.665 236.149 162.743 237.631 166.359 239.56C169.927 241.553 175.088 243.882 180.185 247.286C180.374 247.411 180.554 247.537 180.734 247.662C182.962 250.125 185.228 252.368 187.479 254.391C183.221 251.717 179.362 249.254 176.162 247.897C172.46 246.211 169.903 245.929 169.88 246.093C169.817 246.352 172.209 246.988 175.684 248.886C179.213 250.682 183.675 253.874 188.907 257.113C190.875 258.328 192.561 259.16 193.902 259.709C194.585 260.226 195.259 260.712 195.918 261.191C190.726 258.854 187.087 257.442 186.954 257.803C186.883 258.054 192.397 261.003 199.957 264.72L199.957 267.622C197.494 267.253 196.004 267.081 195.965 267.23C195.91 267.434 197.408 267.951 199.957 268.602L199.957 272.971C194.875 271.347 190.993 269.551 189.205 267.975C183.37 262.83 193.416 267.049 190.326 262.469C187.244 257.889 159.041 241.286 153.779 234.369C148.516 227.451 158.531 228.73 161.559 227.428C159.849 223.349 157.881 217.969 156.492 212.785C157.394 214.032 161.371 217.907 164.986 223.389C165.237 223.781 165.472 224.142 165.7 224.479L165.692 224.479Z" fill="#EBEBEB"/>
<path d="M171.496 210.753C174.037 220.047 175.966 227.192 175.966 227.192C175.966 227.192 184.295 226.619 187.071 229.144C188.397 230.352 193.557 237.058 199.957 244.626L199.957 253.284C198.992 252.226 198.483 251.614 198.365 251.692C198.287 251.732 198.788 252.743 199.957 254.312L199.957 257.222C191.863 249.23 188.193 241.63 187.785 242.077C187.66 241.905 190.961 250.085 199.275 258.516C197.141 257.112 195.134 255.677 193.244 254.21C188.326 248.94 185.095 243.112 182.664 238.964C180.146 234.525 178.578 231.764 178.374 231.874C178.201 231.968 179.409 234.893 181.699 239.481C183.095 242.187 184.852 245.567 187.22 249.073C186.052 247.975 184.93 246.869 183.864 245.748C182.766 244.281 181.362 242.399 179.699 240.062C175.119 233.591 172.092 227.027 170.711 222.039C169.229 217.067 169.182 213.796 168.892 213.812C168.758 213.796 168.413 217.129 169.653 222.313C170.209 224.831 171.198 227.748 172.594 230.838C171.864 229.615 171.174 228.392 170.515 227.176C170.186 225.764 169.386 223.427 167.919 220.251C165.496 214.925 163.653 209.961 163.418 206.212C163.018 202.448 164.155 200.236 163.857 200.134C163.786 200.032 162.202 202.22 162.327 206.259C162.32 207.302 162.429 208.439 162.649 209.624C161.684 207.153 160.775 204.746 159.857 202.424C160.241 205.812 160.829 209.067 161.59 212.18C161.551 212.118 161.52 212.063 161.48 212.008C158.539 207.412 155.151 204.424 154.877 204.722C154.877 204.722 154.877 204.73 154.877 204.738C154.328 199.993 154.9 196.338 157.543 195.475C164.092 193.35 168.978 201.452 171.511 210.745L171.496 210.753Z" fill="#EBEBEB"/>
<path d="M147.332 154.396C139.756 161.729 128.164 181.446 133.584 193.955C134.791 197.28 134.344 201.696 133.144 199.351C133.144 199.351 132.078 197.155 130.517 194.363C130.109 192.912 129.764 191.179 129.615 189.132C129.482 181.046 133.497 174.285 135.952 169.603C138.595 164.89 140.25 161.949 140.046 161.831C139.881 161.737 137.913 164.443 135.011 169.054C132.815 172.795 129.521 177.995 128.431 184.528C129.388 172.058 137.505 164.639 136.933 164.403C136.823 164.286 134.76 165.901 132.305 169.329C129.921 172.685 127.349 178.066 126.886 184.457C126.886 183.414 126.933 182.222 127.051 180.858C127.654 175.172 130.172 170.442 132.164 167.243C134.164 164.004 135.631 162.121 135.442 161.964C135.301 161.847 133.537 163.478 131.254 166.639C129.003 169.744 126.164 174.615 125.521 180.693C125.286 183.359 125.474 185.406 125.78 186.85C125.309 186.222 124.839 185.634 124.376 185.116C125.082 176.874 128.321 155.753 147.332 154.396Z" fill="#EBEBEB"/>
<path d="M91.2324 185.813C88.3619 182.606 96.5498 177.429 108.722 179.076C120.902 180.731 132.697 204.746 133.717 208.659C134.736 212.573 135.764 217.467 135.764 217.467C135.293 217.09 134.87 216.769 134.477 216.479C134.548 215.632 134.289 213.773 133.23 211.012C130.297 203.365 125.341 198.715 125.105 199.021C124.745 199.326 128.98 204.228 131.787 211.577C132.517 213.451 133.042 214.855 133.442 215.765C132.768 215.334 132.156 215.004 131.482 214.706C131.238 213.49 130.776 211.891 129.944 209.93C125.599 200.558 119.302 194.982 119.176 195.154C118.666 195.531 124.392 201.577 128.533 210.549C129.129 211.938 129.591 213.13 129.968 214.11C129.395 213.906 128.752 213.694 128.007 213.443C127.497 212.087 126.643 210.142 125.403 207.608C119.906 197.225 112.463 190.997 112.282 191.295C111.914 191.648 118.682 198.205 124.047 208.346C124.972 210.228 125.772 211.749 126.439 212.902C126.015 212.761 125.56 212.596 125.074 212.432C124.376 210.793 123.058 208.22 120.909 204.809C113.247 192.268 102.416 186.354 102.338 186.778C102.024 187.131 112.141 193.397 119.608 205.648C121.302 208.33 122.603 210.416 123.568 211.898C123.466 211.859 123.372 211.828 123.27 211.789C119.255 202.016 94.1263 189.013 91.248 185.805L91.2324 185.813Z" fill="#EBEBEB"/>
<path d="M111.554 229.859C107.593 225.977 105.585 221.083 113.397 217.091C121.208 213.091 132.329 217.993 136.8 223.342C137.019 224.001 137.325 224.73 137.717 225.514C133.011 220.934 127.898 219.507 127.843 219.797C127.592 220.267 132.776 222.471 137.309 227.295C137.945 227.993 138.47 228.596 138.917 229.106C138.831 229.036 138.752 228.957 138.666 228.887C133.011 223.781 128.439 221.946 128.361 222.252C128.329 222.385 132.486 224.424 137.952 229.718C139.521 231.13 140.995 232.949 142.415 235.067C140.799 233.114 139.168 231.357 137.458 229.906C133.435 226.589 129.372 225.35 126.737 224.416C124.039 223.546 122.518 223.185 122.486 223.279C122.455 223.389 123.914 223.938 126.533 224.981C129.098 226.079 133.027 227.483 136.752 230.738C139.968 233.608 142.948 237.765 146.289 242.329C142.235 237.678 138.172 233.608 133.835 231.349C129.067 228.722 124.777 227.765 121.922 226.942C119.043 226.189 117.444 225.773 117.412 225.875C117.381 225.969 118.918 226.581 121.749 227.514C124.541 228.51 128.761 229.64 133.286 232.298C137.647 234.706 141.701 239.035 145.929 244.062C141.113 239.929 136.572 236.463 132.204 234.22C122.957 229.036 116.228 228.298 116.259 228.44C116.173 228.722 122.683 229.812 131.67 235.177C136.211 237.655 141.074 241.616 146.172 246.156C150.854 250.65 156.297 261.897 176.327 265.089C181.699 265.944 183.731 268.265 184.005 267.912C184.021 267.897 184.029 267.865 184.021 267.826C184.444 267.928 184.805 267.975 185.103 267.999C185.197 268.038 185.276 268.069 185.362 268.101C186.248 269.057 187.644 270.14 189.738 271.387C189.738 271.387 181.362 267.05 172.814 265.269C164.265 263.489 162.5 263.897 157.465 260.313C152.43 256.729 141.419 243.396 134.125 239.741C126.831 236.086 115.53 233.741 111.577 229.851L111.554 229.859Z" fill="#EBEBEB"/>
<path d="M146.345 185.687C147.349 187.64 151.796 191.028 148.745 200.471C145.694 209.914 146.329 225.113 149.129 230.579C148.51 237.551 169.246 253.049 169.246 253.049C166.642 251.637 164.203 250.076 161.921 248.414C160.07 246.579 157.396 243.912 154.102 240.226C147.153 232.477 143.663 223.434 143.318 216.65C142.792 209.882 143.835 205.671 143.498 205.631C143.428 205.592 141.977 209.741 142.228 216.729C142.259 221.921 144.22 228.548 148.141 234.869C147.835 234.469 147.537 234.069 147.247 233.669C146.886 232.94 146.337 231.905 145.647 230.54C145.239 229.654 144.839 228.681 144.447 227.63C141.302 219.09 140.879 210.588 141.741 204.737C142.557 198.777 144.996 195.749 144.777 195.624C144.683 195.451 141.796 198.4 140.667 204.549C139.906 208.455 139.749 213.513 140.62 218.988C138.816 213.411 138.149 208.149 138.597 204.149C139.098 198.91 141.043 196.079 140.761 195.953C140.691 195.836 138.33 198.549 137.506 204.016C136.871 207.874 137.295 212.878 138.785 218.172C137.067 213.592 136.204 209.427 136.15 206.204C135.946 194.73 142.745 187.805 146.353 185.711L146.345 185.687Z" fill="#EBEBEB"/>
<path d="M185.912 262.993C185.802 263.072 185.692 263.158 185.583 263.236C184.791 262.727 183.724 262.091 182.383 261.307C178.948 259.307 175.591 257.644 172.924 257.127C172.642 257.064 172.368 257.009 172.109 256.97C171.058 256.468 168.65 255.605 164.94 254.421C163.874 253.684 162.407 252.703 160.548 251.449C153.835 246.955 149.467 241.622 147.592 239.488C147.459 239.261 147.31 239.018 147.137 238.767C147.09 238.681 147.035 238.594 146.988 238.508C153.686 246.076 162.439 253.503 169.772 255.496C175.277 256.617 183.849 261.346 185.928 262.993L185.912 262.993Z" fill="#EBEBEB"/>
<path d="M143.465 234.297C143.433 234.25 143.402 234.211 143.371 234.163C143.402 234.203 143.433 234.242 143.465 234.289C143.465 234.289 143.465 234.297 143.465 234.305L143.465 234.297Z" fill="#EBEBEB"/>
<path d="M55.2191 163.947C60.1444 153.846 61.3678 150.065 61.7521 164.386C62.1364 178.707 61.0855 200.079 68.7871 217.6C68.7871 217.6 51.6977 190.369 55.2191 163.947Z" fill="#EBEBEB"/>
<path d="M80.9821 151.391C80.7076 175.523 92.9345 220.384 100.573 230.368C99.6793 230.219 98.8636 230.07 98.095 229.905C97.2323 228.478 95.8206 226.266 93.9932 223.192C87.0524 211.624 87.5465 200.22 87.021 200.338C86.6916 200.111 85.476 211.953 92.6521 223.96C94.1187 226.423 95.4206 228.243 96.4637 229.529C95.1697 229.199 94.0481 228.831 93.0443 228.431C92.111 226.925 90.5973 224.447 88.9739 220.682C83.2722 207.295 83.6094 195.123 83.1388 195.201C82.7702 195.06 81.6958 207.491 87.5543 221.294C88.7543 224.078 90.0091 226.117 91.0836 227.552C90.0562 227.035 89.1307 226.486 88.1974 225.89C87.2877 224.07 85.476 220.667 83.4055 215.357C76.9195 198.675 79.4527 183.805 79.0214 183.9C78.6292 183.594 75.3039 198.769 81.9624 215.906C83.5388 219.937 85.1152 222.8 86.3544 224.674C85.3662 224.015 84.3074 223.317 83.0839 222.58C82.182 220.016 81.1938 217.067 80.1664 213.702C70.4649 183.994 74.6373 158.442 74.449 158.591C74.2608 158.528 72.7001 164.724 72.606 174.927C72.5511 180.017 72.7785 186.103 73.8294 192.785C75.0215 199.428 76.5117 206.651 78.6841 214.133C80.2448 219.255 81.7977 223.396 83.1623 226.619C102.777 284.546 163.221 295.549 199.949 296.82L199.949 301.471C130.854 298.906 91.6404 259.731 75.6176 222.306C59.4301 184.511 68.9591 155.022 73.8843 144.921C78.8175 134.819 80.6448 142.098 80.9821 151.391Z" fill="#EBEBEB"/>
<path d="M154.202 268.57C169.762 268.194 176.35 271.339 199.949 279.142L199.949 288.444C189.573 287.534 180.319 285.495 172.915 283.315C159.394 279.354 151.449 275.558 151.277 275.966C151.183 276.138 158.892 280.468 172.437 284.883C179.887 287.322 189.322 289.581 199.949 290.616L199.949 292.381C195.573 292.342 191.197 292.099 186.844 291.644C156.555 288.459 138.956 281.228 115.875 264.1C122.925 268.892 138.109 268.97 154.202 268.578L154.202 268.57Z" fill="#EBEBEB"/>
<path d="M50.6536 159.971C48.3714 179.703 55.2966 196.832 57.9082 202.439C56.7788 200.33 55.3828 198.338 53.7751 196.448C53.1476 194.628 52.4104 192.385 51.6183 189.711C46.8891 172.37 47.9322 157.414 47.1479 157.5C46.9597 157.5 46.7244 161.171 46.8577 167.116C46.9989 173.045 47.5871 181.35 50.136 190.142C50.536 191.475 50.936 192.683 51.3281 193.797C50.5046 192.973 49.6419 192.173 48.7478 191.397C47.9949 189.883 47.1557 187.93 46.3872 185.428C44.2539 178.213 43.8147 171.264 43.3206 166.308C42.8893 161.32 42.5128 158.23 42.2932 158.245C42.0893 158.261 42.0736 161.351 42.2305 166.37C42.4501 171.366 42.7089 178.386 44.9049 185.876C45.297 187.154 45.7284 188.268 46.1754 189.271C45.4382 188.691 44.6853 188.119 43.9167 187.562C43.2579 185.648 42.0893 182.448 40.756 177.797C35.9014 161.751 37.1719 148.081 37.0935 148.097C36.3327 147.854 34.3328 161.939 39.2738 178.221C40.309 181.836 41.3913 184.542 42.3011 186.417C41.3286 185.75 40.3404 185.107 39.3365 184.472C38.513 182.15 37.3523 178.99 35.9249 174.958C29.0625 155.947 29.6114 139.297 29.133 139.36C28.7566 139.211 27.5017 156.167 34.4583 175.46C35.5955 178.676 36.6386 181.295 37.5405 183.366C37.4621 183.319 37.3836 183.264 37.2974 183.217C25.5724 165.233 24.2627 133.078 26.4822 128.788C28.7017 124.498 53.4378 135.823 50.6536 159.971Z" fill="#EBEBEB"/>
<path d="M70.1747 231.411C96.1892 272.382 117.169 285.001 152.736 298.992C169.66 304.631 185.495 306.663 199.949 306.373L199.949 310.153C181.527 311.353 165.033 308.655 151.544 304.953C142.869 301.212 130.423 295.879 115.577 286.632C82.1742 267.198 68.4258 232.494 47.9404 217.263C38.5056 208.902 29.204 204.118 22.4279 202.189C15.5968 200.33 11.6205 200.652 11.6362 200.699C11.6048 200.966 15.5419 200.966 22.1534 203.052C28.7256 205.209 37.6821 210.087 46.8503 218.494C51.4148 222.667 56.3008 227.513 60.9908 233.05C65.7043 238.627 70.2374 245.011 75.1941 251.646C84.8878 265.057 97.9225 278.507 114.33 288.593C120.447 292.405 126.172 295.518 131.403 298.098C130.87 297.887 130.352 297.667 129.843 297.463C101.844 285.919 87.868 269.708 61.6731 237.035C35.4861 204.361 15.8713 203.036 0.0367326 202.934C-0.810282 192.637 12.9459 186.229 27.2669 185.845C41.5878 185.46 44.1445 190.456 70.1669 231.427L70.1747 231.411Z" fill="#EBEBEB"/>
<path d="M6.15405 238.289C6.44423 229.85 21.071 220.556 31.3607 219.709C41.6583 218.862 58.2223 239.175 72.9196 256.515C90.4561 277.213 102.33 284.389 102.33 284.389C97.3578 282.248 91.4129 277.424 84.5819 271.691C82.8015 269.927 80.8173 267.903 78.6606 265.574C73.4765 260.029 69.163 254.327 64.6612 249.355C59.9947 244.594 54.9989 241.183 50.6932 238.657C42.0034 233.732 36.5605 230.917 36.4742 231.034C35.5645 232.218 58.834 240.359 76.1117 264.601C72.0805 261.284 67.8061 257.888 63.2966 254.704C61.6888 252.61 59.3673 249.99 56.1047 247.049C47.8306 239.677 38.8977 234.799 32.0901 232.352C25.2826 229.772 20.6946 229.677 20.7024 229.795C20.6475 230.101 25.1101 230.579 31.6901 233.371C38.2781 236.03 46.9522 240.971 55.0695 248.202C56.3635 249.371 57.5243 250.469 58.5595 251.496C57.0929 250.547 55.6028 249.629 54.097 248.751C53.0696 247.755 51.8304 246.673 50.3481 245.52C37.784 235.818 24.9297 232.932 24.914 233.45C24.7728 233.748 35.6429 236.838 47.1326 245.057C45.6268 244.343 44.0974 243.669 42.5524 243.049C42.0505 242.696 41.525 242.336 40.9603 241.967C33.6665 237.363 25.9257 235.614 20.4514 234.901C14.9301 234.171 11.4871 234.344 11.4793 234.501C11.4636 234.76 14.8831 234.979 20.2711 235.975C24.3807 236.728 29.7373 238.014 35.1802 240.571C33.7293 240.179 32.2548 239.834 30.7725 239.551C29.6353 239.34 28.5217 239.183 27.4472 239.065C27.4237 239.065 27.408 239.05 27.3766 239.034C21.9024 236.493 16.1614 236.65 12.4361 237.559C8.6559 238.493 6.5854 239.716 6.65598 239.865C6.61677 240.485 13.4478 236.987 22.0514 238.885C12.0753 239.206 5.98151 242.838 6.13052 238.273L6.15405 238.289Z" fill="#EBEBEB"/>
<path d="M133.974 120.358C130.853 124.067 130.516 129.369 128.782 126.883C124.626 120.444 128.963 113.189 141.033 110.39C169.298 107.072 181.109 142.035 181.109 142.035C160.546 99.2685 138.327 115.181 133.974 120.358Z" fill="#EBEBEB"/>
<path d="M118.143 112.931C124.017 106.829 143.938 93.9903 168.219 115.88C157.458 108.892 141.294 98.5313 124.66 117.08C120.55 122.311 119.562 133.996 115.798 130.24C112.033 126.491 112.268 119.032 118.143 112.923L118.143 112.931Z" fill="#EBEBEB"/>
<path d="M134.149 100.193C108.472 105.691 109.436 123.282 108.895 130.929C108.354 138.575 101.217 135.203 100.135 128.568C97.931 115.086 107.546 101.612 122.267 96.8283C139.121 91.3462 163.018 95.4715 179.041 122.631C175.198 117.047 159.834 94.7029 134.157 100.193L134.149 100.193Z" fill="#EBEBEB"/>
<path d="M199.949 168.928C195.087 167.532 189.346 166.191 182.476 164.998C182.476 164.998 189.958 162.042 199.949 163.893L199.949 168.928Z" fill="#EBEBEB"/>
<path d="M199.949 160.662C198.02 160.38 195.871 160.199 193.259 160.082C180.758 148.02 159.982 149.329 159.982 149.329C174.625 141.361 189.958 148.012 199.941 154.992L199.941 160.662L199.949 160.662Z" fill="#EBEBEB"/>
<path d="M192.475 35.7887C191.299 49.5135 182.625 93.1508 186.837 117.652C191.056 142.152 195.362 145.384 197.307 148.191C194.436 146.348 192.052 144.976 192.052 144.976C192.052 144.976 187.723 139.807 184.421 126.734C184.28 124.992 184.139 123.04 184.013 120.875C183.26 98.2329 186.35 79.8102 185.472 79.7553C185.354 79.7161 182.147 94.5389 182.068 114.318C181.605 110.883 181.245 107.127 181.017 103.009C181.174 98.9152 181.37 94.2409 181.645 88.9706C182.272 77.3005 185.472 66.5873 186.946 56.4309C188.484 46.3294 188.358 36.9102 187.017 29.3419C185.088 13.5466 176.955 6.50372 177.229 6.63705C176.594 6.84096 184.201 14.1034 185.723 29.4831C186.891 37.0984 186.868 46.1803 185.268 56.1799C184.068 64.007 181.77 72.4223 180.539 81.4337C180.515 76.8848 180.523 72.4223 180.539 68.1166C180.954 66.0932 181.409 63.8344 181.888 61.3169C184.327 48.3606 185.001 36.173 183.433 27.5616C182.076 18.911 179.347 14.1112 179.26 14.1818C178.876 14.3073 181.143 19.2325 182.131 27.742C183.245 35.5534 182.601 46.2588 180.602 57.9759C180.719 40.9335 180.751 27.6322 179.025 23.2716C176.061 15.7582 168.571 -6.78977 179.119 2.00198C189.676 10.7937 193.652 22.0638 192.483 35.7965L192.475 35.7887Z" fill="#EBEBEB"/>
<path d="M199.949 40.0006C198.498 44.0788 196.961 48.2747 195.4 52.5804C195.165 53.2392 194.938 53.8823 194.718 54.5176C196.2 47.2238 197.965 39.9849 199.957 32.8872L199.957 40.0006L199.949 40.0006Z" fill="#EBEBEB"/>
<path d="M199.949 53.4973C192.969 73.2298 188.13 96.2405 192.522 118.506C194.42 131.415 195.087 136.976 199.949 147.47L199.949 148.787C197.455 144.677 193.393 136.356 191.228 123.039C190.342 116.694 189.518 107.385 190.044 95.0092C191.008 78.3825 195.024 63.2694 199.949 50.6896L199.949 53.4895L199.949 53.4973Z" fill="#EBEBEB"/>
<path d="M199.949 82.313C198.161 92.0694 197.8 102.265 199.039 112.719C199.33 114.594 199.628 116.413 199.949 118.194L199.949 136.812C197.683 131.009 195.871 124.437 194.859 117.041C192.671 101.057 195.385 84.0698 199.949 68.4783L199.949 82.3052L199.949 82.313Z" fill="#EBEBEB"/>
</svg>
