<svg width="168" height="275" viewBox="0 0 168 275" fill="none" xmlns="http://www.w3.org/2000/svg">
<path d="M154.885 204.998C155.245 205.915 157.653 208.935 160.171 212.872C161.182 214.44 162.006 215.366 162.523 215.711C162.829 216.77 163.167 217.813 163.52 218.84C160.108 214.738 156.869 212.401 156.367 212.362C155.692 209.79 155.167 207.272 154.885 205.005L154.885 204.998Z" fill="#EBEBEB"/>
<path d="M165.692 224.479C166.664 226.738 167.723 228.91 168.853 230.997C164.743 227.012 161.355 224.464 161.135 224.691C160.798 225.036 164.931 229.099 169.825 234.157C170.735 235.177 171.511 235.961 172.139 236.526C172.554 237.169 172.978 237.804 173.409 238.424C170.319 235.867 166.923 234.22 164.343 233.459C160.806 232.228 158.775 231.201 158.657 231.381C158.531 231.553 160.469 232.965 163.927 234.471C167.48 235.883 171.762 238.275 175.527 242.682C175.566 242.722 175.597 242.761 175.644 242.8C172.327 241.035 169.245 239.71 166.845 238.581C163.127 236.91 160.884 235.781 160.767 235.977C160.665 236.149 162.743 237.632 166.359 239.561C169.927 241.553 175.088 243.882 180.185 247.286C180.374 247.412 180.554 247.537 180.734 247.663C182.962 250.125 185.228 252.368 187.479 254.392C183.221 251.717 179.362 249.255 176.162 247.898C172.46 246.212 169.903 245.929 169.88 246.094C169.817 246.353 172.209 246.988 175.684 248.886C179.213 250.682 183.675 253.874 188.907 257.113C190.875 258.329 192.561 259.16 193.902 259.709C194.585 260.227 195.259 260.713 195.918 261.191C190.726 258.854 187.087 257.442 186.954 257.803C186.883 258.054 192.397 261.003 199.957 264.721L199.957 267.622C197.494 267.254 196.004 267.081 195.965 267.23C195.91 267.434 197.408 267.952 199.957 268.603L199.957 272.971C194.875 271.348 190.993 269.552 189.205 267.975C183.37 262.83 193.416 267.05 190.326 262.47C187.244 257.89 159.041 241.286 153.779 234.369C148.516 227.452 158.531 228.73 161.559 227.428C159.849 223.35 157.881 217.97 156.492 212.786C157.394 214.033 161.371 217.907 164.986 223.389C165.237 223.781 165.472 224.142 165.7 224.479L165.692 224.479Z" fill="#EBEBEB"/>
<path d="M171.496 210.754C174.037 220.048 175.966 227.193 175.966 227.193C175.966 227.193 184.295 226.62 187.071 229.146C188.397 230.353 193.557 237.059 199.957 244.627L199.957 253.286C198.992 252.227 198.483 251.615 198.365 251.694C198.287 251.733 198.788 252.745 199.957 254.313L199.957 257.223C191.863 249.231 188.193 241.631 187.785 242.078C187.66 241.906 190.961 250.086 199.275 258.517C197.141 257.113 195.134 255.678 193.244 254.211C188.326 248.941 185.095 243.114 182.664 238.965C180.146 234.526 178.578 231.765 178.374 231.875C178.201 231.969 179.409 234.894 181.699 239.482C183.095 242.188 184.852 245.568 187.22 249.074C186.052 247.976 184.93 246.87 183.864 245.749C182.766 244.282 181.362 242.4 179.699 240.063C175.119 233.592 172.092 227.028 170.711 222.04C169.229 217.068 169.182 213.797 168.892 213.813C168.758 213.797 168.413 217.13 169.653 222.315C170.209 224.832 171.198 227.75 172.594 230.84C171.864 229.616 171.174 228.393 170.515 227.177C170.186 225.765 169.386 223.428 167.919 220.252C165.496 214.927 163.653 209.962 163.418 206.213C163.018 202.449 164.155 200.237 163.857 200.135C163.786 200.033 162.202 202.221 162.327 206.26C162.32 207.303 162.429 208.441 162.649 209.625C161.684 207.154 160.775 204.747 159.857 202.425C160.241 205.813 160.829 209.068 161.59 212.182C161.551 212.119 161.52 212.064 161.48 212.009C158.539 207.413 155.151 204.425 154.877 204.723C154.877 204.723 154.877 204.731 154.877 204.739C154.328 199.994 154.9 196.339 157.543 195.477C164.092 193.351 168.978 201.453 171.511 210.746L171.496 210.754Z" fill="#EBEBEB"/>
<path d="M147.332 154.396C139.756 161.729 128.164 181.446 133.584 193.955C134.791 197.28 134.344 201.696 133.144 199.351C133.144 199.351 132.078 197.155 130.517 194.363C130.109 192.912 129.764 191.179 129.615 189.132C129.482 181.046 133.497 174.285 135.952 169.603C138.595 164.89 140.25 161.949 140.046 161.831C139.881 161.737 137.913 164.443 135.011 169.054C132.815 172.795 129.521 177.995 128.431 184.528C129.388 172.058 137.505 164.639 136.933 164.403C136.823 164.286 134.76 165.901 132.305 169.329C129.921 172.685 127.349 178.066 126.886 184.457C126.886 183.414 126.933 182.222 127.051 180.858C127.654 175.172 130.172 170.442 132.164 167.243C134.164 164.004 135.631 162.121 135.442 161.964C135.301 161.847 133.537 163.478 131.254 166.639C129.003 169.744 126.164 174.615 125.521 180.693C125.286 183.359 125.474 185.406 125.78 186.85C125.309 186.222 124.839 185.634 124.376 185.116C125.082 176.874 128.321 155.753 147.332 154.396Z" fill="#EBEBEB"/>
<path d="M91.2343 185.814C88.3639 182.607 96.5517 177.43 108.724 179.077C120.904 180.732 132.699 204.747 133.719 208.66C134.738 212.574 135.766 217.468 135.766 217.468C135.295 217.091 134.872 216.77 134.479 216.48C134.55 215.633 134.291 213.774 133.232 211.013C130.299 203.366 125.343 198.716 125.107 199.022C124.747 199.327 128.982 204.229 131.789 211.578C132.519 213.452 133.044 214.856 133.444 215.766C132.77 215.335 132.158 215.005 131.483 214.707C131.24 213.491 130.778 211.892 129.946 209.931C125.601 200.559 119.304 194.983 119.178 195.155C118.668 195.532 124.394 201.578 128.535 210.55C129.131 211.939 129.593 213.131 129.97 214.111C129.397 213.907 128.754 213.695 128.009 213.444C127.499 212.088 126.644 210.143 125.405 207.609C119.908 197.226 112.465 190.998 112.284 191.296C111.916 191.649 118.684 198.206 124.049 208.347C124.974 210.229 125.774 211.75 126.441 212.903C126.017 212.762 125.562 212.597 125.076 212.433C124.378 210.794 123.06 208.221 120.911 204.81C113.249 192.269 102.418 186.355 102.34 186.779C102.026 187.132 112.143 193.398 119.609 205.649C121.304 208.331 122.605 210.417 123.57 211.899C123.468 211.86 123.374 211.829 123.272 211.79C119.257 202.017 94.1283 189.014 91.25 185.806L91.2343 185.814Z" fill="#EBEBEB"/>
<path d="M111.554 229.859C107.593 225.977 105.585 221.083 113.397 217.091C121.208 213.091 132.329 217.993 136.8 223.342C137.019 224.001 137.325 224.73 137.717 225.514C133.011 220.934 127.898 219.507 127.843 219.797C127.592 220.267 132.776 222.471 137.309 227.295C137.945 227.993 138.47 228.596 138.917 229.106C138.831 229.036 138.752 228.957 138.666 228.887C133.011 223.781 128.439 221.946 128.361 222.252C128.329 222.385 132.486 224.424 137.952 229.718C139.521 231.13 140.995 232.949 142.415 235.067C140.799 233.114 139.168 231.357 137.458 229.906C133.435 226.589 129.372 225.35 126.737 224.416C124.039 223.546 122.518 223.185 122.486 223.279C122.455 223.389 123.914 223.938 126.533 224.981C129.098 226.079 133.027 227.483 136.752 230.738C139.968 233.608 142.948 237.765 146.289 242.329C142.235 237.678 138.172 233.608 133.835 231.349C129.067 228.722 124.777 227.765 121.922 226.942C119.043 226.189 117.444 225.773 117.412 225.875C117.381 225.969 118.918 226.581 121.749 227.514C124.541 228.51 128.761 229.64 133.286 232.298C137.647 234.706 141.701 239.035 145.929 244.062C141.113 239.929 136.572 236.463 132.204 234.22C122.957 229.036 116.228 228.298 116.259 228.44C116.173 228.722 122.683 229.812 131.67 235.177C136.211 237.655 141.074 241.616 146.172 246.156C150.854 250.65 156.297 261.897 176.327 265.089C181.699 265.944 183.731 268.265 184.005 267.912C184.021 267.897 184.029 267.865 184.021 267.826C184.444 267.928 184.805 267.975 185.103 267.999C185.197 268.038 185.276 268.069 185.362 268.101C186.248 269.057 187.644 270.14 189.738 271.387C189.738 271.387 181.362 267.05 172.814 265.269C164.265 263.489 162.5 263.897 157.465 260.313C152.43 256.729 141.419 243.396 134.125 239.741C126.831 236.086 115.53 233.741 111.577 229.851L111.554 229.859Z" fill="#EBEBEB"/>
<path d="M146.345 185.689C147.349 187.642 151.796 191.03 148.745 200.473C145.694 209.915 146.329 225.115 149.129 230.581C148.51 237.553 169.246 253.051 169.246 253.051C166.642 251.639 164.203 250.078 161.921 248.415C160.07 246.58 157.396 243.914 154.102 240.228C147.153 232.479 143.663 223.436 143.318 216.652C142.792 209.884 143.835 205.672 143.498 205.633C143.428 205.594 141.977 209.743 142.228 216.731C142.259 221.923 144.22 228.55 148.141 234.871C147.835 234.471 147.537 234.071 147.247 233.671C146.886 232.942 146.337 231.906 145.647 230.542C145.239 229.656 144.839 228.683 144.447 227.632C141.302 219.091 140.879 210.59 141.741 204.739C142.557 198.778 144.996 195.751 144.777 195.626C144.683 195.453 141.796 198.402 140.667 204.551C139.906 208.456 139.749 213.515 140.62 218.989C138.816 213.413 138.149 208.151 138.597 204.151C139.098 198.912 141.043 196.081 140.761 195.955C140.691 195.837 138.33 198.551 137.506 204.017C136.871 207.876 137.295 212.88 138.785 218.174C137.067 213.594 136.204 209.429 136.15 206.206C135.946 194.732 142.745 187.806 146.353 185.712L146.345 185.689Z" fill="#EBEBEB"/>
<path d="M185.91 262.995C185.8 263.074 185.69 263.16 185.581 263.238C184.789 262.729 183.722 262.093 182.381 261.309C178.946 259.309 175.589 257.646 172.922 257.129C172.64 257.066 172.366 257.011 172.107 256.972C171.056 256.47 168.648 255.607 164.938 254.423C163.872 253.686 162.405 252.705 160.547 251.451C153.833 246.957 149.465 241.624 147.59 239.49C147.457 239.263 147.308 239.02 147.135 238.769C147.088 238.683 147.033 238.596 146.986 238.51C153.684 246.078 162.437 253.505 169.77 255.497C175.275 256.619 183.847 261.348 185.926 262.995L185.91 262.995Z" fill="#EBEBEB"/>
<path d="M143.465 234.298C143.433 234.251 143.402 234.212 143.371 234.165C143.402 234.204 143.433 234.243 143.465 234.29C143.465 234.29 143.465 234.298 143.465 234.306L143.465 234.298Z" fill="#EBEBEB"/>
<path d="M55.2172 163.949C60.1424 153.847 61.3659 150.067 61.7502 164.388C62.1345 178.709 61.0835 200.08 68.7852 217.601C68.7852 217.601 51.6957 190.371 55.2172 163.949Z" fill="#EBEBEB"/>
<path d="M80.9821 151.392C80.7076 175.525 92.9345 220.385 100.573 230.369C99.6793 230.22 98.8636 230.071 98.095 229.907C97.2323 228.479 95.8206 226.267 93.9932 223.193C87.0524 211.625 87.5465 200.222 87.021 200.339C86.6916 200.112 85.476 211.954 92.6521 223.962C94.1187 226.424 95.4206 228.244 96.4637 229.53C95.1697 229.201 94.0481 228.832 93.0443 228.432C92.111 226.926 90.5973 224.448 88.9739 220.683C83.2722 207.296 83.6094 195.124 83.1388 195.202C82.7702 195.061 81.6958 207.492 87.5543 221.295C88.7543 224.079 90.0091 226.118 91.0836 227.554C90.0562 227.036 89.1307 226.487 88.1974 225.891C87.2877 224.072 85.476 220.668 83.4055 215.358C76.9195 198.677 79.4527 183.807 79.0214 183.901C78.6292 183.595 75.3039 198.771 81.9624 215.907C83.5388 219.938 85.1152 222.801 86.3544 224.675C85.3662 224.017 84.3074 223.319 83.0839 222.581C82.182 220.017 81.1938 217.068 80.1664 213.703C70.4649 183.995 74.6373 158.443 74.449 158.592C74.2608 158.529 72.7001 164.725 72.606 174.929C72.5511 180.019 72.7785 186.105 73.8294 192.787C75.0215 199.429 76.5117 206.653 78.6841 214.135C80.2448 219.256 81.7977 223.397 83.1623 226.62C102.777 284.547 163.221 295.551 199.949 296.821L199.949 301.472C130.854 298.907 91.6404 259.733 75.6176 222.307C59.4301 184.513 68.9591 155.024 73.8843 144.922C78.8175 134.821 80.6448 142.099 80.9821 151.392Z" fill="#EBEBEB"/>
<path d="M154.202 268.571C169.762 268.195 176.35 271.34 199.949 279.143L199.949 288.445C189.573 287.535 180.319 285.496 172.915 283.316C159.394 279.355 151.449 275.559 151.277 275.967C151.183 276.14 158.892 280.469 172.437 284.884C179.887 287.323 189.322 289.582 199.949 290.617L199.949 292.382C195.573 292.343 191.197 292.1 186.844 291.645C156.555 288.461 138.956 281.23 115.875 264.101C122.925 268.893 138.109 268.971 154.202 268.579L154.202 268.571Z" fill="#EBEBEB"/>
<path d="M50.6556 159.972C48.3733 179.705 55.2985 196.833 57.9102 202.441C56.7808 200.331 55.3848 198.339 53.777 196.449C53.1496 194.629 52.4124 192.386 51.6202 189.712C46.891 172.372 47.9341 157.415 47.1499 157.502C46.9616 157.502 46.7264 161.172 46.8597 167.117C47.0009 173.046 47.5891 181.352 50.138 190.143C50.5379 191.477 50.9379 192.685 51.3301 193.798C50.5066 192.975 49.6439 192.175 48.7498 191.398C47.9969 189.885 47.1577 187.932 46.3891 185.43C44.2559 178.215 43.8167 171.266 43.3226 166.309C42.8912 161.321 42.5148 158.231 42.2952 158.247C42.0913 158.263 42.0756 161.353 42.2324 166.372C42.452 171.368 42.7108 178.387 44.9068 185.877C45.299 187.155 45.7303 188.269 46.1773 189.273C45.4401 188.693 44.6872 188.12 43.9186 187.563C43.2598 185.65 42.0913 182.45 40.758 177.799C35.9033 161.753 37.1738 148.083 37.0954 148.098C36.3347 147.855 34.3348 161.941 39.2757 178.222C40.311 181.838 41.3933 184.544 42.303 186.418C41.3305 185.751 40.3423 185.108 39.3385 184.473C38.515 182.152 37.3542 178.991 35.9268 174.96C29.0644 155.949 29.6134 139.299 29.135 139.361C28.7585 139.212 27.5037 156.169 34.4602 175.462C35.5974 178.677 36.6405 181.297 37.5425 183.367C37.464 183.32 37.3856 183.265 37.2993 183.218C25.5744 165.235 24.2646 133.079 26.4841 128.789C28.7036 124.499 53.4398 135.824 50.6556 159.972Z" fill="#EBEBEB"/>
<path d="M70.1747 231.412C96.1892 272.383 117.169 285.002 152.736 298.993C169.66 304.632 185.495 306.664 199.949 306.374L199.949 310.154C181.527 311.354 165.033 308.656 151.544 304.954C142.869 301.213 130.423 295.88 115.577 286.633C82.1742 267.199 68.4258 232.495 47.9404 217.264C38.5056 208.903 29.204 204.119 22.4279 202.19C15.5968 200.331 11.6205 200.653 11.6362 200.7C11.6048 200.967 15.5419 200.967 22.1534 203.053C28.7256 205.209 37.6821 210.088 46.8503 218.495C51.4148 222.668 56.3008 227.514 60.9908 233.051C65.7043 238.628 70.2374 245.012 75.1941 251.647C84.8878 265.058 97.9225 278.508 114.33 288.594C120.447 292.406 126.172 295.519 131.403 298.099C130.87 297.888 130.352 297.668 129.843 297.464C101.844 285.92 87.868 269.709 61.6731 237.035C35.4861 204.362 15.8713 203.037 0.0367326 202.935C-0.810282 192.638 12.9459 186.23 27.2669 185.846C41.5878 185.461 44.1445 190.457 70.1669 231.428L70.1747 231.412Z" fill="#EBEBEB"/>
<path d="M6.156 238.29C6.44618 229.851 21.073 220.558 31.3627 219.711C41.6603 218.864 58.2242 239.176 72.9216 256.517C90.4581 277.214 102.332 284.39 102.332 284.39C97.3597 282.249 91.4149 277.426 84.5838 271.693C82.8035 269.928 80.8193 267.905 78.6625 265.575C73.4784 260.03 69.1649 254.329 64.6632 249.356C59.9967 244.596 55.0008 241.184 50.6952 238.659C42.0054 233.734 36.5625 230.918 36.4762 231.036C35.5664 232.22 58.836 240.361 76.1136 264.603C72.0824 261.285 67.8081 257.889 63.2985 254.705C61.6907 252.611 59.3693 249.992 56.1067 247.051C47.8325 239.678 38.8996 234.8 32.0921 232.353C25.2845 229.773 20.6965 229.679 20.7044 229.797C20.6495 230.102 25.112 230.581 31.6921 233.373C38.28 236.032 46.9542 240.973 55.0714 248.204C56.3655 249.372 57.5262 250.47 58.5615 251.498C57.0949 250.549 55.6047 249.631 54.0989 248.753C53.0715 247.757 51.8324 246.674 50.3501 245.521C37.7859 235.82 24.9316 232.934 24.9159 233.451C24.7748 233.749 35.6449 236.839 47.1345 245.059C45.6287 244.345 44.0994 243.67 42.5543 243.051C42.0524 242.698 41.5269 242.337 40.9623 241.969C33.6685 237.365 25.9277 235.616 20.4534 234.902C14.9321 234.173 11.4891 234.345 11.4813 234.502C11.4656 234.761 14.885 234.981 20.273 235.977C24.3826 236.73 29.7393 238.016 35.1821 240.573C33.7312 240.18 32.2568 239.835 30.7745 239.553C29.6373 239.341 28.5236 239.184 27.4492 239.067C27.4256 239.067 27.4099 239.051 27.3786 239.035C21.9043 236.494 16.1634 236.651 12.4381 237.561C8.65785 238.494 6.58735 239.718 6.65794 239.867C6.61872 240.486 13.4498 236.988 22.0533 238.886C12.0773 239.208 5.98346 242.839 6.13247 238.275L6.156 238.29Z" fill="#EBEBEB"/>
<path d="M133.974 120.358C130.853 124.068 130.516 129.37 128.782 126.884C124.626 120.445 128.963 113.19 141.033 110.39C169.298 107.073 181.109 142.036 181.109 142.036C160.546 99.2692 138.327 115.182 133.974 120.358Z" fill="#EBEBEB"/>
<path d="M118.143 112.931C124.017 106.83 143.938 93.9911 168.219 115.88C157.458 108.892 141.294 98.5321 124.66 117.08C120.55 122.311 119.562 133.997 115.798 130.24C112.033 126.492 112.268 119.033 118.143 112.924L118.143 112.931Z" fill="#EBEBEB"/>
<path d="M134.147 100.195C108.47 105.693 109.434 123.284 108.893 130.931C108.352 138.577 101.215 135.205 100.133 128.57C97.929 115.088 107.544 101.614 122.265 96.8303C139.119 91.3482 163.016 95.4735 179.039 122.633C175.196 117.049 159.832 94.7048 134.155 100.195L134.147 100.195Z" fill="#EBEBEB"/>
<path d="M199.949 160.663C198.02 160.38 195.871 160.2 193.259 160.082C180.758 148.02 159.982 149.33 159.982 149.33C174.625 141.362 189.958 148.012 199.941 154.992L199.941 160.663L199.949 160.663Z" fill="#EBEBEB"/>
</svg>
