<svg width="245" height="299" viewBox="0 0 245 299" fill="none" xmlns="http://www.w3.org/2000/svg">
<path d="M220.725 226.139C221.239 227.447 224.67 231.75 228.258 237.361C229.7 239.596 230.873 240.915 231.611 241.407C232.047 242.916 232.527 244.402 233.03 245.866C228.168 240.021 223.552 236.69 222.837 236.634C221.876 232.968 221.127 229.381 220.725 226.151L220.725 226.139Z" fill="#EBEBEB"/>
<path d="M236.126 253.902C237.512 257.121 239.021 260.217 240.63 263.19C234.774 257.513 229.945 253.88 229.633 254.204C229.152 254.696 235.042 260.486 242.016 267.694C243.313 269.147 244.419 270.265 245.313 271.07C245.906 271.986 246.509 272.892 247.124 273.775C242.72 270.131 237.881 267.784 234.204 266.7C229.163 264.945 226.268 263.481 226.101 263.738C225.922 263.984 228.682 265.996 233.611 268.142C238.674 270.153 244.777 273.562 250.142 279.844C250.198 279.899 250.242 279.955 250.309 280.011C245.582 277.496 241.189 275.608 237.769 273.998C232.471 271.617 229.275 270.008 229.107 270.287C228.962 270.533 231.924 272.646 237.076 275.395C242.162 278.234 249.516 281.554 256.781 286.404C257.049 286.583 257.306 286.762 257.563 286.941C260.737 290.45 263.967 293.647 267.175 296.53C261.106 292.719 255.607 289.21 251.047 287.276C245.772 284.873 242.128 284.471 242.094 284.705C242.005 285.074 245.414 285.98 250.365 288.684C255.395 291.244 261.754 295.793 269.209 300.409C272.014 302.141 274.417 303.326 276.329 304.108C277.301 304.846 278.262 305.539 279.201 306.22C271.802 302.89 266.616 300.878 266.426 301.392C266.326 301.75 274.183 305.952 284.957 311.25L284.957 315.385C281.448 314.86 279.324 314.614 279.268 314.826C279.19 315.117 281.325 315.855 284.957 316.782L284.957 323.008C277.715 320.694 272.182 318.135 269.634 315.888C261.318 308.556 275.636 314.569 271.232 308.042C266.84 301.515 226.648 277.854 219.149 267.996C211.649 258.138 225.922 259.96 230.236 258.105C227.8 252.293 224.994 244.626 223.016 237.238C224.301 239.015 229.968 244.536 235.12 252.349C235.478 252.908 235.813 253.422 236.137 253.902L236.126 253.902Z" fill="#EBEBEB"/>
<path d="M244.397 234.343C248.018 247.588 250.768 257.77 250.768 257.77C250.768 257.77 262.637 256.954 266.594 260.553C268.483 262.274 275.837 271.83 284.957 282.615L284.957 294.954C283.582 293.445 282.856 292.574 282.688 292.685C282.576 292.741 283.292 294.183 284.957 296.418L284.957 300.565C273.423 289.176 268.192 278.346 267.611 278.983C267.432 278.737 272.137 290.394 283.985 302.409C280.945 300.409 278.083 298.363 275.39 296.273C268.382 288.762 263.777 280.458 260.312 274.546C256.725 268.22 254.489 264.286 254.199 264.442C253.953 264.576 255.674 268.745 258.938 275.283C260.927 279.139 263.431 283.956 266.806 288.952C265.141 287.388 263.543 285.812 262.023 284.214C260.458 282.124 258.457 279.441 256.088 276.11C249.561 266.89 245.246 257.535 243.279 250.426C241.167 243.34 241.1 238.68 240.686 238.702C240.496 238.68 240.004 243.43 241.77 250.818C242.564 254.405 243.972 258.563 245.962 262.967C244.922 261.223 243.939 259.48 243 257.747C242.53 255.735 241.39 252.405 239.3 247.878C235.847 240.289 233.22 233.214 232.885 227.872C232.315 222.507 233.936 219.355 233.511 219.21C233.41 219.065 231.153 222.183 231.331 227.939C231.32 229.426 231.477 231.046 231.79 232.734C230.415 229.213 229.118 225.782 227.811 222.474C228.358 227.302 229.197 231.94 230.281 236.377C230.225 236.288 230.18 236.21 230.124 236.131C225.933 229.582 221.105 225.324 220.714 225.748C220.714 225.748 220.714 225.76 220.714 225.771C219.931 219.009 220.747 213.801 224.514 212.571C233.846 209.542 240.809 221.088 244.419 234.332L244.397 234.343Z" fill="#EBEBEB"/>
<path d="M209.961 154.029C199.164 164.479 182.645 192.577 190.368 210.404C192.089 215.143 191.452 221.435 189.742 218.093C189.742 218.093 188.222 214.964 185.998 210.985C185.417 208.917 184.925 206.447 184.713 203.53C184.523 192.007 190.245 182.373 193.744 175.7C197.51 168.983 199.868 164.792 199.578 164.624C199.343 164.49 196.538 168.346 192.402 174.918C189.273 180.249 184.579 187.659 183.025 196.969C184.389 179.199 195.957 168.625 195.141 168.29C194.984 168.122 192.045 170.425 188.546 175.309C185.149 180.093 181.483 187.76 180.823 196.869C180.823 195.382 180.89 193.683 181.058 191.739C181.919 183.636 185.506 176.896 188.345 172.336C191.195 167.72 193.285 165.038 193.017 164.814C192.816 164.646 190.301 166.971 187.049 171.475C183.841 175.901 179.795 182.842 178.879 191.504C178.543 195.304 178.812 198.221 179.247 200.278C178.577 199.384 177.906 198.545 177.247 197.808C178.253 186.061 182.869 155.962 209.961 154.029Z" fill="#EBEBEB"/>
<path d="M130.014 198.802C125.924 194.231 137.592 186.854 154.938 189.201C172.296 191.56 189.106 225.783 190.558 231.36C192.011 236.937 193.476 243.911 193.476 243.911C192.805 243.375 192.201 242.916 191.643 242.503C191.743 241.296 191.374 238.647 189.866 234.713C185.685 223.815 178.622 217.188 178.286 217.624C177.772 218.059 183.808 225.045 187.809 235.517C188.848 238.189 189.597 240.189 190.167 241.486C189.206 240.871 188.334 240.402 187.373 239.977C187.027 238.245 186.367 235.965 185.182 233.17C178.991 219.814 170.016 211.868 169.837 212.113C169.11 212.65 177.269 221.267 183.171 234.053C184.02 236.032 184.68 237.73 185.216 239.128C184.4 238.837 183.484 238.535 182.422 238.177C181.695 236.244 180.477 233.472 178.711 229.862C170.876 215.064 160.27 206.19 160.013 206.615C159.487 207.118 169.133 216.461 176.778 230.913C178.096 233.595 179.236 235.763 180.187 237.406C179.583 237.205 178.935 236.97 178.242 236.736C177.247 234.4 175.369 230.734 172.307 225.872C161.387 208 145.952 199.573 145.841 200.177C145.394 200.68 159.811 209.61 170.452 227.068C172.866 230.89 174.721 233.863 176.096 235.976C175.951 235.92 175.816 235.875 175.671 235.819C169.949 221.893 134.139 203.362 130.037 198.791L130.014 198.802Z" fill="#EBEBEB"/>
<path d="M158.973 261.57C153.329 256.037 150.468 249.063 161.6 243.374C172.732 237.674 188.58 244.659 194.951 252.282C195.264 253.221 195.7 254.26 196.259 255.378C189.553 248.85 182.265 246.816 182.187 247.23C181.83 247.9 189.217 251.041 195.678 257.915C196.583 258.909 197.332 259.77 197.969 260.497C197.846 260.396 197.734 260.284 197.611 260.184C189.553 252.908 183.037 250.292 182.925 250.728C182.88 250.918 188.804 253.824 196.594 261.368C198.829 263.38 200.931 265.973 202.954 268.991C200.651 266.208 198.326 263.704 195.89 261.637C190.156 256.909 184.367 255.143 180.611 253.813C176.767 252.572 174.598 252.058 174.554 252.192C174.509 252.349 176.588 253.131 180.321 254.618C183.976 256.182 189.575 258.183 194.884 262.821C199.466 266.912 203.714 272.836 208.475 279.34C202.696 272.713 196.907 266.912 190.726 263.693C183.931 259.949 177.817 258.585 173.749 257.412C169.647 256.339 167.367 255.746 167.322 255.892C167.278 256.026 169.468 256.898 173.503 258.228C177.482 259.647 183.495 261.257 189.944 265.045C196.158 268.477 201.936 274.646 207.961 281.81C201.098 275.92 194.627 270.98 188.401 267.784C175.224 260.396 165.635 259.345 165.679 259.547C165.556 259.949 174.833 261.502 187.641 269.147C194.113 272.679 201.042 278.323 208.307 284.795C214.98 291.199 222.736 307.226 251.281 311.775C258.937 312.993 261.832 316.302 262.223 315.799C262.246 315.776 262.257 315.732 262.246 315.676C262.849 315.821 263.363 315.888 263.788 315.922C263.922 315.978 264.034 316.022 264.157 316.067C265.42 317.431 267.409 318.973 270.394 320.75C270.394 320.75 258.457 314.569 246.274 312.032C234.092 309.495 231.577 310.076 224.402 304.969C217.226 299.861 201.534 280.86 191.14 275.652C180.745 270.444 164.64 267.102 159.007 261.558L158.973 261.57Z" fill="#EBEBEB"/>
<path d="M208.554 198.624C209.984 201.407 216.321 206.235 211.974 219.692C207.626 233.148 208.531 254.809 212.521 262.599C211.638 272.535 241.189 294.62 241.189 294.62C237.479 292.608 234.003 290.384 230.75 288.015C228.113 285.399 224.302 281.599 219.607 276.346C209.705 265.304 204.731 252.417 204.239 242.749C203.491 233.104 204.977 227.102 204.496 227.046C204.396 226.99 202.328 232.903 202.686 242.861C202.731 250.26 205.525 259.704 211.113 268.713C210.677 268.143 210.252 267.573 209.839 267.003C209.325 265.963 208.542 264.488 207.559 262.543C206.978 261.28 206.408 259.894 205.849 258.397C201.367 246.225 200.763 234.11 201.993 225.772C203.155 217.278 206.631 212.963 206.318 212.785C206.184 212.539 202.071 216.741 200.462 225.504C199.378 231.07 199.154 238.279 200.395 246.08C197.824 238.133 196.874 230.634 197.511 224.934C198.226 217.468 200.998 213.433 200.596 213.254C200.495 213.086 197.131 216.953 195.957 224.744C195.052 230.242 195.656 237.373 197.779 244.917C195.332 238.39 194.102 232.455 194.024 227.862C193.733 211.51 203.423 201.641 208.565 198.657L208.554 198.624Z" fill="#EBEBEB"/>
<path d="M264.94 308.791C264.783 308.903 264.627 309.026 264.47 309.138C263.341 308.411 261.821 307.506 259.91 306.388C255.015 303.538 250.231 301.169 246.431 300.431C246.029 300.342 245.637 300.263 245.269 300.208C243.771 299.492 240.34 298.263 235.053 296.575C233.533 295.525 231.443 294.127 228.794 292.339C219.227 285.935 213.002 278.335 210.33 275.295C210.14 274.971 209.928 274.624 209.682 274.266C209.615 274.144 209.537 274.021 209.47 273.898C219.015 284.683 231.488 295.267 241.938 298.106C249.784 299.705 262 306.444 264.962 308.791L264.94 308.791Z" fill="#EBEBEB"/>
<path d="M204.451 267.895C204.406 267.828 204.362 267.772 204.317 267.705C204.362 267.761 204.406 267.817 204.451 267.884C204.451 267.884 204.451 267.895 204.451 267.906L204.451 267.895Z" fill="#EBEBEB"/>
<path d="M78.6917 167.642C85.7107 153.246 87.4542 147.859 88.0019 168.268C88.5495 188.676 87.0519 219.133 98.0273 244.102C98.0273 244.102 73.6734 205.296 78.6917 167.642Z" fill="#EBEBEB"/>
<path d="M115.407 149.747C115.016 184.138 132.441 248.068 143.327 262.296C142.053 262.084 140.89 261.872 139.795 261.637C138.565 259.603 136.554 256.451 133.949 252.07C124.058 235.584 124.762 219.333 124.013 219.501C123.544 219.177 121.812 236.053 132.038 253.165C134.128 256.674 135.984 259.267 137.47 261.1C135.626 260.631 134.028 260.106 132.597 259.536C131.267 257.39 129.11 253.858 126.796 248.493C118.671 229.415 119.152 212.068 118.481 212.18C117.956 211.979 116.424 229.694 124.773 249.365C126.483 253.333 128.272 256.239 129.803 258.284C128.339 257.546 127.02 256.764 125.69 255.914C124.393 253.321 121.812 248.471 118.861 240.904C109.618 217.131 113.228 195.94 112.613 196.075C112.054 195.639 107.315 217.265 116.804 241.687C119.051 247.431 121.297 251.511 123.063 254.182C121.655 253.243 120.146 252.248 118.403 251.198C117.117 247.543 115.709 243.341 114.245 238.546C100.419 196.209 106.365 159.795 106.097 160.007C105.829 159.918 103.605 168.748 103.471 183.288C103.392 190.542 103.717 199.215 105.214 208.738C106.913 218.204 109.037 228.498 112.133 239.161C114.357 246.459 116.57 252.36 118.514 256.954C146.467 339.505 232.606 355.186 284.946 356.996L284.946 363.624C186.48 359.969 130.596 304.142 107.763 250.807C84.6939 196.946 98.2735 154.922 105.292 140.526C112.323 126.131 114.927 136.503 115.407 149.747Z" fill="#EBEBEB"/>
<path d="M72.187 161.975C68.9346 190.096 78.8036 214.506 82.5254 222.497C80.9159 219.491 78.9265 216.652 76.6353 213.958C75.7411 211.365 74.6905 208.169 73.5617 204.357C66.8222 179.646 68.3087 158.332 67.191 158.455C66.9228 158.455 66.5875 163.685 66.7775 172.157C66.9786 180.607 67.8169 192.443 71.4493 204.972C72.0193 206.872 72.5893 208.593 73.1482 210.18C71.9746 209.007 70.7452 207.867 69.471 206.76C68.3981 204.603 67.2022 201.82 66.1069 198.255C63.0668 187.972 62.4409 178.07 61.7368 171.006C61.1221 163.898 60.5856 159.494 60.2726 159.517C59.982 159.539 59.9597 163.942 60.1832 171.096C60.4962 178.215 60.865 188.218 63.9945 198.892C64.5533 200.714 65.168 202.301 65.8051 203.731C64.7545 202.904 63.6815 202.088 62.5862 201.295C61.6474 198.568 59.982 194.008 58.082 187.38C51.1637 164.512 52.9743 145.032 52.8625 145.054C51.7784 144.707 48.9283 164.781 55.9696 187.984C57.4449 193.136 58.9873 196.992 60.2838 199.663C58.8979 198.713 57.4897 197.797 56.059 196.891C54.8855 193.583 53.2313 189.079 51.1972 183.334C41.4176 156.242 42.2 132.514 41.5182 132.603C40.9817 132.391 39.1934 156.555 49.1071 184.049C50.7278 188.632 52.2143 192.365 53.4996 195.315C53.3878 195.248 53.276 195.17 53.1531 195.103C36.444 169.475 34.5775 123.651 37.7405 117.537C40.9035 111.423 76.1547 127.562 72.187 161.975Z" fill="#EBEBEB"/>
<path d="M100.006 263.783C137.079 322.17 166.977 340.153 217.663 360.092C241.782 368.128 264.348 371.023 284.946 370.61L284.946 375.997C258.692 377.707 235.188 373.862 215.964 368.587C203.602 363.255 185.865 355.655 164.708 342.478C117.106 314.782 97.5135 265.325 68.32 243.62C54.8745 231.706 41.619 224.888 31.9623 222.139C22.2275 219.49 16.5609 219.948 16.5832 220.015C16.5385 220.395 22.1492 220.395 31.5712 223.368C40.9372 226.442 53.701 233.394 66.7665 245.375C73.2713 251.321 80.2344 258.228 86.918 266.119C93.6352 274.066 100.095 283.163 107.159 292.619C120.973 311.731 139.549 330.899 162.931 345.272C171.648 350.704 179.807 355.141 187.262 358.818C186.502 358.517 185.765 358.204 185.038 357.913C145.137 341.461 125.22 318.359 87.8904 271.797C50.5715 225.235 22.6187 223.346 0.0529547 223.201C-1.15411 208.526 18.4498 199.394 38.8584 198.847C59.267 198.299 62.9105 205.418 99.9947 263.805L100.006 263.783Z" fill="#EBEBEB"/>
<path d="M8.77054 273.586C9.18409 261.56 30.0286 248.315 44.6924 247.108C59.3673 245.901 82.9725 274.849 103.918 299.56C128.909 329.056 145.83 339.282 145.83 339.282C138.744 336.231 130.272 329.357 120.537 321.187C118 318.672 115.172 315.789 112.099 312.469C104.711 304.567 98.5639 296.442 92.1485 289.356C85.4984 282.572 78.3789 277.71 72.2429 274.111C59.8591 267.092 52.1025 263.08 51.9796 263.247C50.6831 264.935 83.8443 276.536 108.466 311.084C102.722 306.356 96.6304 301.516 90.2038 296.979C87.9126 293.994 84.6043 290.261 79.9548 286.07C68.1634 275.564 55.4332 268.612 45.7318 265.125C36.0305 261.448 29.4921 261.314 29.5033 261.481C29.425 261.917 35.7846 262.599 45.1618 266.578C54.5502 270.367 66.9116 277.408 78.4795 287.713C80.3236 289.378 81.9778 290.943 83.4531 292.407C81.363 291.055 79.2395 289.747 77.0935 288.495C75.6294 287.076 73.8635 285.534 71.7511 283.891C53.8461 270.065 35.5275 265.952 35.5052 266.69C35.304 267.114 50.7948 271.518 67.1687 283.231C65.0227 282.214 62.8433 281.253 60.6415 280.37C59.9262 279.867 59.1773 279.353 58.3726 278.828C47.9783 272.267 36.9469 269.774 29.1456 268.757C21.2773 267.718 16.3707 267.964 16.3595 268.187C16.3372 268.556 21.2102 268.869 28.8886 270.289C34.7451 271.362 42.3788 273.195 50.1354 276.838C48.0677 276.279 45.9665 275.788 43.8541 275.385C42.2335 275.083 40.6464 274.86 39.1152 274.692C39.0817 274.692 39.0593 274.67 39.0146 274.648C31.2133 271.026 23.032 271.25 17.7231 272.546C12.3359 273.876 9.38526 275.62 9.48586 275.832C9.42996 276.715 19.1649 271.73 31.4257 274.435C17.2089 274.893 8.52466 280.068 8.73702 273.563L8.77054 273.586Z" fill="#EBEBEB"/>
<path d="M190.928 105.522C186.479 110.808 185.999 118.364 183.529 114.821C177.605 105.645 183.786 95.3062 200.987 91.3161C241.268 86.5884 258.1 136.414 258.1 136.414C228.794 75.4677 197.131 98.1451 190.928 105.522Z" fill="#EBEBEB"/>
<path d="M168.362 94.9378C176.733 86.2424 205.122 67.9461 239.725 99.1402C224.39 89.1818 201.355 74.4175 177.649 100.85C171.793 108.305 170.385 124.958 165.02 119.605C159.655 114.262 159.99 103.633 168.362 94.9267L168.362 94.9378Z" fill="#EBEBEB"/>
<path d="M191.174 76.7863C154.582 84.6211 155.956 109.69 155.185 120.588C154.414 131.485 144.243 126.679 142.701 117.223C139.56 98.0108 153.263 78.8093 174.241 71.9915C198.26 64.179 232.315 70.058 255.149 108.763C249.673 100.805 227.778 68.9626 191.185 76.7863L191.174 76.7863Z" fill="#EBEBEB"/>
<path d="M284.946 162.958C282.197 162.556 279.134 162.299 275.413 162.131C257.597 144.941 227.99 146.808 227.99 146.808C248.857 135.452 270.707 144.93 284.935 154.877L284.935 162.958L284.946 162.958Z" fill="#EBEBEB"/>
<path d="M274.295 -14.9966C272.618 4.56262 260.257 66.7496 266.259 101.666C272.272 136.581 278.408 141.186 281.18 145.188C277.089 142.561 273.691 140.605 273.691 140.605C273.691 140.605 267.522 133.24 262.816 114.608C262.615 112.127 262.414 109.344 262.235 106.259C261.162 73.9921 265.566 47.7381 264.314 47.6599C264.146 47.604 259.575 68.7279 259.463 96.9155C258.804 92.0201 258.29 86.6665 257.966 80.7987C258.189 74.9645 258.469 68.3032 258.86 60.7924C259.754 44.1616 264.314 28.8942 266.415 14.4205C268.606 0.0249018 268.427 -13.3983 266.516 -24.1837C263.766 -46.6936 252.176 -56.7302 252.567 -56.5402C251.662 -56.2496 262.503 -45.9 264.672 -23.9826C266.337 -13.13 266.304 -0.18747 264.024 14.0628C262.313 25.2171 259.039 37.2097 257.284 50.0517C257.25 43.5692 257.262 37.2097 257.284 31.0737C257.876 28.1901 258.525 24.9712 259.206 21.3835C262.682 2.91963 263.643 -14.4489 261.408 -26.7209C259.475 -39.0487 255.585 -45.8889 255.462 -45.7883C254.915 -45.6094 258.145 -38.5905 259.553 -26.4638C261.14 -15.3319 260.223 -0.075654 257.373 16.6223C257.541 -7.66461 257.586 -26.6203 255.127 -32.8345C250.902 -43.5417 240.228 -75.6747 255.261 -63.1456C270.305 -50.6166 275.971 -34.5557 274.306 -14.9854L274.295 -14.9966Z" fill="#EBEBEB"/>
</svg>
