<svg width="27" height="10" viewBox="0 0 27 10" fill="none" xmlns="http://www.w3.org/2000/svg">
<path fill-rule="evenodd" clip-rule="evenodd" d="M19.5 9.33008L27 4.99995L19.5 0.669825L19.5 4.24995L4.44119e-07 4.24995L3.12985e-07 5.74995L19.5 5.74995L19.5 9.33008Z" fill="white"/>
</svg>
