<svg width="18" height="20" viewBox="0 0 18 20" fill="none" xmlns="http://www.w3.org/2000/svg">
<path d="M15 2.10526H14V1.05263C14 0.773456 13.8946 0.505715 13.7071 0.308309C13.5196 0.110902 13.2652 0 13 0C12.7348 0 12.4804 0.110902 12.2929 0.308309C12.1054 0.505715 12 0.773456 12 1.05263V2.10526H6V1.05263C6 0.773456 5.89464 0.505715 5.70711 0.308309C5.51957 0.110902 5.26522 0 5 0C4.73478 0 4.48043 0.110902 4.29289 0.308309C4.10536 0.505715 4 0.773456 4 1.05263V2.10526H3C2.20435 2.10526 1.44129 2.43797 0.87868 3.03019C0.316071 3.62241 0 4.42563 0 5.26316V16.8421C0 17.6796 0.316071 18.4829 0.87868 19.0751C1.44129 19.6673 2.20435 20 3 20H15C15.7956 20 16.5587 19.6673 17.1213 19.0751C17.6839 18.4829 18 17.6796 18 16.8421V5.26316C18 4.42563 17.6839 3.62241 17.1213 3.03019C16.5587 2.43797 15.7956 2.10526 15 2.10526ZM5 16.8421C4.80222 16.8421 4.60888 16.7804 4.44443 16.6647C4.27998 16.549 4.15181 16.3846 4.07612 16.1923C4.00043 16 3.98063 15.7883 4.01921 15.5841C4.0578 15.3799 4.15304 15.1924 4.29289 15.0452C4.43275 14.8979 4.61093 14.7977 4.80491 14.7571C4.99889 14.7165 5.19996 14.7373 5.38268 14.817C5.56541 14.8966 5.72159 15.0316 5.83147 15.2047C5.94135 15.3778 6 15.5813 6 15.7895C6 16.0686 5.89464 16.3364 5.70711 16.5338C5.51957 16.7312 5.26522 16.8421 5 16.8421ZM5 12.6316C4.80222 12.6316 4.60888 12.5698 4.44443 12.4542C4.27998 12.3385 4.15181 12.1741 4.07612 11.9818C4.00043 11.7894 3.98063 11.5778 4.01921 11.3736C4.0578 11.1694 4.15304 10.9818 4.29289 10.8346C4.43275 10.6874 4.61093 10.5872 4.80491 10.5465C4.99889 10.5059 5.19996 10.5268 5.38268 10.6064C5.56541 10.6861 5.72159 10.821 5.83147 10.9941C5.94135 11.1672 6 11.3708 6 11.5789C6 11.8581 5.89464 12.1259 5.70711 12.3233C5.51957 12.5207 5.26522 12.6316 5 12.6316ZM9 16.8421C8.80222 16.8421 8.60888 16.7804 8.44443 16.6647C8.27998 16.549 8.15181 16.3846 8.07612 16.1923C8.00043 16 7.98063 15.7883 8.01921 15.5841C8.0578 15.3799 8.15304 15.1924 8.29289 15.0452C8.43275 14.8979 8.61093 14.7977 8.80491 14.7571C8.99889 14.7165 9.19996 14.7373 9.38268 14.817C9.56541 14.8966 9.72159 15.0316 9.83147 15.2047C9.94135 15.3778 10 15.5813 10 15.7895C10 16.0686 9.89464 16.3364 9.70711 16.5338C9.51957 16.7312 9.26522 16.8421 9 16.8421ZM9 12.6316C8.80222 12.6316 8.60888 12.5698 8.44443 12.4542C8.27998 12.3385 8.15181 12.1741 8.07612 11.9818C8.00043 11.7894 7.98063 11.5778 8.01921 11.3736C8.0578 11.1694 8.15304 10.9818 8.29289 10.8346C8.43275 10.6874 8.61093 10.5872 8.80491 10.5465C8.99889 10.5059 9.19996 10.5268 9.38268 10.6064C9.56541 10.6861 9.72159 10.821 9.83147 10.9941C9.94135 11.1672 10 11.3708 10 11.5789C10 11.8581 9.89464 12.1259 9.70711 12.3233C9.51957 12.5207 9.26522 12.6316 9 12.6316ZM13 12.6316C12.8022 12.6316 12.6089 12.5698 12.4444 12.4542C12.28 12.3385 12.1518 12.1741 12.0761 11.9818C12.0004 11.7894 11.9806 11.5778 12.0192 11.3736C12.0578 11.1694 12.153 10.9818 12.2929 10.8346C12.4327 10.6874 12.6109 10.5872 12.8049 10.5465C12.9989 10.5059 13.2 10.5268 13.3827 10.6064C13.5654 10.6861 13.7216 10.821 13.8315 10.9941C13.9414 11.1672 14 11.3708 14 11.5789C14 11.8581 13.8946 12.1259 13.7071 12.3233C13.5196 12.5207 13.2652 12.6316 13 12.6316ZM16 8.42105H2V5.26316C2 4.98398 2.10536 4.71624 2.29289 4.51884C2.48043 4.32143 2.73478 4.21053 3 4.21053H4V5.26316C4 5.54233 4.10536 5.81007 4.29289 6.00748C4.48043 6.20489 4.73478 6.31579 5 6.31579C5.26522 6.31579 5.51957 6.20489 5.70711 6.00748C5.89464 5.81007 6 5.54233 6 5.26316V4.21053H12V5.26316C12 5.54233 12.1054 5.81007 12.2929 6.00748C12.4804 6.20489 12.7348 6.31579 13 6.31579C13.2652 6.31579 13.5196 6.20489 13.7071 6.00748C13.8946 5.81007 14 5.54233 14 5.26316V4.21053H15C15.2652 4.21053 15.5196 4.32143 15.7071 4.51884C15.8946 4.71624 16 4.98398 16 5.26316V8.42105Z" fill="#919191"/>
</svg>
